a,abc,this is abc
h,html,this is html
p,php, this is php
sd,sad,asdsdas
ghgf,dfgfg,dffghgfg
bcvbcc,ccvxc,vcvxc
eqwe,fghgfhgf,gdfgdf
weqwe,ddfsd,dfxvcv
iokjkj,hng,hgnghg
ghfgdf,dfgdfdf,dfdfgd
dfgdfgs,sss,asdasda
dfsdsd,dfsdss,asdasdaa
xzxczx,xzczxczx,xzczx
czxc,xcxc,zzzx
zczcz,zxczxcz,c
zczxc,zczxx,zxczc
zczzc,zxczxx,zcz
zxczc,zxc,zxczc
z,zcxcz,zxczc
czxczxczx,czxc,zcz
zxczc,zxcz,zxczc
zc,zxxc,zcz
sadas,sdas,sadasdsa
